[
	{
		"id": 1,
		"name": "Abner José Campos",
		"message": "Então, vou pagar dia 6 as du...",
		"date": "09:13",
		"message_quantity": 0
	},
	{
		"id": 2,
		"name": "Elaine da Silva",
		"message": "Foi você que me ligou?",
		"date": "13/04",
		"message_quantity": 16
	},
	{
		"id": 3,
		"name": "Camila Aparecida",
		"message": "Você: ahh entendi!",
		"date": "13/04",
		"message_quantity": 16
	},
	{
		"id": 4,
		"name": "José Batista Souza",
		"message": "Arquivo",
		"date": "09:13",
		"message_quantity": 0
	},
	{
		"id": 5,
		"name": "Léia De Souza Bueno",
		"message": "Meu pagamento caiu aí?",
		"date": "13/04",
		"message_quantity": 16
	},
	{
		"id": 6,
		"name": "Júlio Zvingila",
		"message": "Foto",
		"date": "09:13",
		"message_quantity": 0
	},
	{
		"id": 7,
		"name": "Julio Cesar Lopes",
		"message": "Meu pagamento caiu aí?",
		"date": "09:13",
		"message_quantity": 0
	}
]